<?xml version="1.0" encoding="utf-8"?>
<!-- Generator: Adobe Illustrator 19.1.1, SVG Export Plug-In . SVG Version: 6.00 Build 0)  -->
<svg version="1.1" id="Layer_1" xmlns="http://www.w3.org/2000/svg" xmlns:xlink="http://www.w3.org/1999/xlink" x="0px" y="0px"
	 viewBox="0 0 16 16" style="enable-background:new 0 0 16 16;" xml:space="preserve">
<style type="text/css">
	.dx_darkgray{fill:#787878;}
</style>
<polygon class="dx_darkgray" points="13,11 13,7 9,7 9,5 11,5 11,0 5,0 5,5 7,5 7,7 3,7 3,11 1,11 1,16 7,16 7,11 5,11 5,9 11,9 
	11,11 9,11 9,16 15,16 15,11 "/>
</svg>
